module zulunity.com/routes

go 1.20

replace zulunity.com/notes => ../notes

replace zulunity.com/database => ../database

require (
	github.com/gofiber/fiber/v2 v2.42.0
	zulunity.com/notes v0.0.0-00010101000000-000000000000
)

require (
	github.com/andybalholm/brotli v1.0.4 // indirect
	github.com/gofiber/fiber v1.14.6 // indirect
	github.com/gofiber/utils v0.0.10 // indirect
	github.com/google/uuid v1.3.0 // indirect
	github.com/gorilla/schema v1.1.0 // indirect
	github.com/jinzhu/gorm v1.9.16 // indirect
	github.com/jinzhu/inflection v1.0.0 // indirect
	github.com/klauspost/compress v1.15.9 // indirect
	github.com/mattn/go-colorable v0.1.13 // indirect
	github.com/mattn/go-isatty v0.0.17 // indirect
	github.com/mattn/go-runewidth v0.0.14 // indirect
	github.com/mattn/go-sqlite3 v1.14.0 // indirect
	github.com/philhofer/fwd v1.1.1 // indirect
	github.com/rivo/uniseg v0.2.0 // indirect
	github.com/savsgio/dictpool v0.0.0-20221023140959-7bf2e61cea94 // indirect
	github.com/savsgio/gotils v0.0.0-20220530130905-52f3993e8d6d // indirect
	github.com/tinylib/msgp v1.1.6 // indirect
	github.com/valyala/bytebufferpool v1.0.0 // indirect
	github.com/valyala/fasthttp v1.44.0 // indirect
	github.com/valyala/tcplisten v1.0.0 // indirect
	golang.org/x/sys v0.0.0-20220811171246-fbc7d0a398ab // indirect
	zulunity.com/database v0.0.0-00010101000000-000000000000 // indirect
)
