module zulunity.com/database

go 1.20

require (
	gorm.io/driver/sqlite v1.4.4
	gorm.io/gorm v1.24.5
)

require (
	github.com/jinzhu/inflection v1.0.0 // indirect
	github.com/jinzhu/now v1.1.5 // indirect
	github.com/mattn/go-sqlite3 v1.14.15 // indirect
)
